{
	"source": "UE",
	"applications": [
		{
			"app_key": "application.generated.ue.virtual-reality-bp-game-template-14469661.ue4editor.exe",
			"launch_type": "url",
			"url": "steam://launch/",
			"action_manifest_path": "D:/PROJECTS_ON_GIT/UNREALPROJECTS/redvr/REDVR/Config/SteamVRBindings/steamvr_manifest.json",
			"strings":
			{
				"en_us":
				{
					"name": "Virtual Reality BP Game Template-14469661 [UE Editor]"
				}
			}
		}
	]
}